module bitbucket.org/holdex/hp-backend-lib

require (
	bitbucket.org/holdex/go-proto-validators v0.0.0-20190116072441-bb29ebc150f8
	github.com/coreos/go-oidc v2.0.0+incompatible
	github.com/dgrijalva/jwt-go v3.2.0+incompatible
	github.com/gogo/protobuf v1.2.1
	github.com/golang/protobuf v1.3.1
	github.com/grpc-ecosystem/go-grpc-middleware v1.0.0
	github.com/kr/pretty v0.1.0 // indirect
	github.com/pquerna/cachecontrol v0.0.0-20180517163645-1555304b9b35 // indirect
	github.com/rollbar/rollbar-go v1.0.2
	github.com/satori/go.uuid v1.2.0
	github.com/stretchr/testify v1.3.0 // indirect
	golang.org/x/crypto v0.0.0-20190308221718-c2843e01d9a2
	google.golang.org/genproto v0.0.0-20190307195333-5fe7a883aa19
	google.golang.org/grpc v1.19.0
	gopkg.in/check.v1 v1.0.0-20180628173108-788fd7840127 // indirect
	gopkg.in/square/go-jose.v2 v2.3.0
)
